<svg width="25" height="25" viewBox="0 0 25 25" fill="none" xmlns="http://www.w3.org/2000/svg">
<path fill-rule="evenodd" clip-rule="evenodd" d="M3.37778 3.01099L3.27634 3.00038C2.90716 2.98688 2.57562 3.24796 2.51087 3.62209L2.50026 3.72354C2.48676 4.09272 2.74784 4.42426 3.12197 4.48901L4.63098 4.75L5.54551 15.6457L5.56443 15.8095C5.74843 17.0519 6.81708 17.986 8.08988 17.986H19.0019L19.1662 17.9808C20.3626 17.9044 21.3545 16.9996 21.5291 15.7978L22.4781 9.23941L22.4945 9.08877C22.5819 7.88969 21.632 6.849 20.4089 6.849H6.31198L6.07725 4.04727L6.05956 3.93641C5.99112 3.64809 5.75673 3.42273 5.45778 3.37099L3.37778 3.01099ZM7.97394 16.4797C7.47867 16.4255 7.08258 16.0277 7.04028 15.5207L6.43798 8.349H20.4089L20.497 8.35548C20.8128 8.40242 21.0409 8.69769 20.9936 9.02465L20.0446 15.5826L20.0208 15.6998C19.9005 16.1584 19.485 16.486 19.0019 16.486H8.08988L7.97394 16.4797ZM6.40828 21.0853C6.40828 20.2492 7.08595 19.5703 7.92228 19.5703C8.75849 19.5703 9.43728 20.2491 9.43728 21.0853C9.43728 21.9216 8.75838 22.5993 7.92228 22.5993C7.08606 22.5993 6.40828 21.9215 6.40828 21.0853ZM17.6597 21.0853C17.6597 20.2491 18.3385 19.5703 19.1747 19.5703C20.0109 19.5703 20.6897 20.2491 20.6897 21.0853C20.6897 21.9216 20.0108 22.5993 19.1747 22.5993C18.3386 22.5993 17.6597 21.9216 17.6597 21.0853ZM18.1484 11.295C18.1484 10.8808 17.8126 10.545 17.3984 10.545H14.6254L14.5236 10.5518C14.1575 10.6015 13.8754 10.9153 13.8754 11.295C13.8754 11.7092 14.2112 12.045 14.6254 12.045H17.3984L17.5001 12.0382C17.8662 11.9885 18.1484 11.6747 18.1484 11.295Z" fill="#975E1A"/>
</svg>
