<svg width="24" height="24" viewBox="0 0 24 24" fill="none" xmlns="http://www.w3.org/2000/svg">
<path d="M17.0874 4.5H6.9126C4.96187 4.5 3.375 6.17576 3.375 8.23577V14.0066C3.375 15.6504 4.39585 17.0806 5.87827 17.5396L7.58643 19.3435C7.68076 19.4431 7.80879 19.5 7.94355 19.5C8.07832 19.5 8.20635 19.4431 8.30068 19.3435L9.86733 17.689H17.0874C19.0381 17.689 20.625 16.0133 20.625 13.9533V8.23577C20.625 6.17576 19.0381 4.5 17.0874 4.5ZM19.6143 13.9533C19.6143 15.4262 18.4822 16.6217 17.0874 16.6217H9.65845C9.52368 16.6217 9.39565 16.6786 9.30132 16.7782L7.94355 18.212L6.49819 16.6857C6.43418 16.6181 6.35332 16.5683 6.26235 16.547C5.15728 16.2517 4.38574 15.2092 4.38574 14.0066V8.23577C4.38574 6.76281 5.51777 5.56736 6.9126 5.56736H17.0874C18.4822 5.56736 19.6143 6.76281 19.6143 8.23577V13.9533Z" fill="#ABA387"/>
<path d="M15.207 9.61623H8.79211C8.51248 9.61623 8.28674 9.85461 8.28674 10.1499C8.28674 10.4452 8.51248 10.6836 8.79211 10.6836H15.2103C15.49 10.6836 15.7157 10.4452 15.7157 10.1499C15.7123 9.85461 15.4866 9.61623 15.207 9.61623Z" fill="#ABA387"/>
<path d="M15.207 11.5054H8.79211C8.51248 11.5054 8.28674 11.7438 8.28674 12.0391C8.28674 12.3344 8.51248 12.5728 8.79211 12.5728H15.2103C15.49 12.5728 15.7157 12.3344 15.7157 12.0391C15.7157 11.7438 15.4866 11.5054 15.207 11.5054Z" fill="#ABA387"/>
</svg>
