<svg width="24" height="25" viewBox="0 0 24 25" fill="none" xmlns="http://www.w3.org/2000/svg">
<path d="M18.4907 6.625H5.50928C4.74331 6.625 4.125 7.25937 4.125 8.03125V16.4688C4.125 17.2469 4.74946 17.875 5.50928 17.875H18.4907C19.2505 17.875 19.875 17.25 19.875 16.4688V8.03125C19.875 7.25937 19.2567 6.625 18.4907 6.625ZM18.2969 7.5625C18.0139 7.84687 13.1474 12.7656 12.9782 12.9375C12.7167 13.2031 12.3691 13.35 12 13.35C11.6309 13.35 11.2833 13.2031 11.0218 12.9375C10.908 12.8219 6.09375 7.95625 5.70308 7.5625H18.2969ZM5.04785 16.2781V8.22187L9.03457 12.2531L5.04785 16.2781ZM5.70308 16.9375L9.68979 12.9125L10.3696 13.5969C10.8064 14.0406 11.3848 14.2844 12 14.2844C12.6152 14.2844 13.1966 14.0406 13.6304 13.6L14.3102 12.9125L18.2969 16.9375H5.70308ZM18.9521 16.2781L14.9654 12.2531L18.9521 8.22187V16.2781Z" fill="#ABA387"/>
</svg>
