<svg width="24" height="24" viewBox="0 0 24 24" fill="none" xmlns="http://www.w3.org/2000/svg">
<path d="M20.5812 13.782L20.1857 13.5402L20.5812 13.2985C21.6323 12.6575 21.6323 11.5623 20.5812 10.9213L20.1857 10.6796L20.5812 10.4378C21.6323 9.79315 21.6286 8.26575 20.5812 7.62476L12.8542 2.87041C12.3232 2.54808 11.6677 2.54808 11.1367 2.87041L3.41327 7.62476C2.36225 8.26941 2.36225 9.79681 3.41327 10.4341L3.80878 10.6759L3.41327 10.9176C2.36591 11.5586 2.35858 12.6538 3.41327 13.2948L3.80878 13.5366L3.41327 13.7783C2.36225 14.423 2.36225 15.7342 3.41327 16.3752L11.1403 21.1296C11.664 21.4483 12.3232 21.4556 12.8615 21.1296L20.5886 16.3752C21.6359 15.7379 21.6359 14.4266 20.5812 13.782ZM3.98456 8.56244L11.7116 3.80809C11.8874 3.70187 12.1071 3.70187 12.2829 3.80809L20.0099 8.56244C20.3578 8.77488 20.3615 9.28402 20.0099 9.50012C19.4423 9.84809 12.5319 14.1006 12.2829 14.2545C12.1071 14.3607 11.8874 14.3607 11.7116 14.2545C11.3674 14.042 4.29584 9.69059 3.98456 9.50012C3.633 9.28768 3.633 8.77855 3.98456 8.56244ZM3.72089 12.1117C3.72089 12.0934 3.7685 11.9908 3.98456 11.859L4.85614 11.3279L11.1367 15.1922C11.6603 15.5145 12.3195 15.5181 12.8579 15.1922L19.1384 11.3279L20.0099 11.859C20.2224 11.9908 20.2736 12.0934 20.2736 12.1117C20.2736 12.13 20.226 12.2326 20.0099 12.3645C19.4423 12.7124 12.5319 16.965 12.2829 17.1188C12.1071 17.225 11.8874 17.225 11.7116 17.1188C11.4626 16.965 4.55951 12.7161 3.98456 12.3645C3.77216 12.2326 3.72089 12.13 3.72089 12.1117ZM20.0099 15.4449L12.2829 20.1992C12.1071 20.3055 11.8874 20.3055 11.7116 20.1992L3.98456 15.4449C3.63666 15.2324 3.63666 14.9358 3.98456 14.7196L4.85614 14.1885L11.1367 18.0528C11.664 18.3751 12.3195 18.3788 12.8579 18.0528L19.1384 14.1885L20.0099 14.7196C20.1784 14.8222 20.2736 14.9541 20.2736 15.0823C20.2736 15.2105 20.1784 15.3423 20.0099 15.4449Z" fill="#ABA387"/>
</svg>
