<svg width="20" height="20" viewBox="0 0 20 20" fill="none" xmlns="http://www.w3.org/2000/svg">
<path d="M4.76 19.5C4.2 19.501 3.685 19.193 3.421 18.7C3.264 18.41 3.207 18.076 3.26 17.75L4.151 12.76C4.151 12.749 4.148 12.738 4.14 12.73L0.44 9.17C0.159 8.896 0.001 8.52 0 8.127C0 7.713 0.166 7.316 0.461 7.027C0.694 6.817 0.982 6.679 1.291 6.627L6.341 5.897C6.361 5.897 6.382 5.888 6.382 5.867L8.64 1.34C8.818 0.981 9.131 0.709 9.51 0.58C9.668 0.526 9.834 0.5 10 0.5C10.573 0.503 11.095 0.827 11.35 1.34L13.611 5.88C13.621 5.89 13.631 5.9 13.64 5.9L18.702 6.63C19.098 6.686 19.457 6.894 19.702 7.21C20.153 7.814 20.084 8.657 19.542 9.18L15.872 12.73C15.872 12.73 15.865 12.737 15.865 12.74C15.865 12.743 15.865 12.74 15.872 12.75L16.752 17.76C16.872 18.575 16.316 19.337 15.502 19.47C15.424 19.481 15.344 19.488 15.265 19.488C15.017 19.489 14.772 19.428 14.553 19.31L10.032 16.95C10.018 16.949 10.004 16.953 9.992 16.96L5.44 19.34C5.23 19.446 4.996 19.501 4.76 19.5Z" fill="#EBD67D"/>
</svg>
