<svg width="25" height="25" viewBox="0 0 25 25" fill="none" xmlns="http://www.w3.org/2000/svg">
<path fill-rule="evenodd" clip-rule="evenodd" d="M12.5043 2.5C9.57027 2.5 7.19177 4.88864 7.19177 7.83517C7.19177 10.7817 9.57027 13.1703 12.5043 13.1703C15.4383 13.1703 17.8168 10.7817 17.8168 7.83517C17.8168 4.88864 15.4383 2.5 12.5043 2.5ZM12.5043 3.94767C14.6422 3.94767 16.3753 5.68816 16.3753 7.83517C16.3753 9.98218 14.6422 11.7227 12.5043 11.7227C10.3664 11.7227 8.6333 9.98218 8.6333 7.83517C8.6333 5.68816 10.3664 3.94767 12.5043 3.94767ZM10.33 15.3209C9.55233 15.3749 8.76621 15.4859 7.9908 15.6521C6.49418 15.9604 5.29685 16.5763 4.78724 17.5999C4.59503 18.0002 4.49839 18.4288 4.50002 18.8627C4.49944 19.2935 4.5953 19.7227 4.78062 20.1153C5.26994 21.1271 6.3278 21.6997 7.75624 22.0171L8.01213 22.0705C8.76648 22.2407 9.55284 22.3553 10.3445 22.409C10.4119 22.4288 10.5726 22.4472 10.748 22.4561L10.8922 22.4615C10.9664 22.4633 11.0506 22.4637 11.176 22.4637C12.3138 22.5263 13.4934 22.5081 14.6675 22.4081C15.2932 22.3653 15.9231 22.2835 16.5477 22.1636L17.0151 22.0666C18.5576 21.7623 19.7126 21.1836 20.2186 20.1164C20.5937 19.3241 20.5937 18.4047 20.2188 17.6127C19.714 16.5483 18.5737 15.9744 17.0034 15.6509C16.3873 15.5194 15.7612 15.422 15.1307 15.3599L14.6697 15.3209C13.2259 15.1935 11.7738 15.1935 10.33 15.3209ZM14.5436 16.763L14.5562 16.764C15.2799 16.8149 15.9991 16.9165 16.7087 17.068C17.8751 17.3083 18.6667 17.7067 18.9171 18.2348C19.1057 18.633 19.1057 19.0958 18.9169 19.4944C18.6829 19.9879 17.972 20.3691 16.9445 20.6021L16.7195 20.6498C15.996 20.8112 15.2791 20.9152 14.5576 20.9647C13.4379 21.0599 12.3249 21.0771 11.2148 21.0171L10.8212 21.0103C10.7119 21.0048 10.6198 20.9942 10.5345 20.9771C9.85872 20.9261 9.25066 20.8454 8.66027 20.7283L8.30775 20.6537C7.13771 20.4244 6.33915 20.0243 6.08024 19.489C5.98964 19.297 5.94125 19.0803 5.94154 18.8609C5.94073 18.6428 5.98848 18.431 6.08118 18.2379C6.33293 17.7324 7.17919 17.2971 8.28606 17.069C9.00073 16.9159 9.71962 16.8144 10.4429 16.764C11.816 16.643 13.1837 16.643 14.5436 16.763Z" fill="#975E1A"/>
</svg>
